﻿# Tiled2Unity generated file. Do not modify by hand.
# Wavefront file for 'sample2_mesh_0002.obj'

# Vertices (Count = 108)
v -832 -720 0
v -848 -720 0
v -848 -704 0
v -832 -704 0
v -816 -704 0
v -832 -704 0
v -832 -688 0
v -816 -688 0
v -848 -704 0
v -864 -704 0
v -864 -688 0
v -848 -688 0
v -768 -688 0
v -784 -688 0
v -784 -672 0
v -768 -672 0
v -880 -688 0
v -896 -688 0
v -896 -672 0
v -880 -672 0
v -768 -672 0
v -784 -672 0
v -784 -656 0
v -768 -656 0
v -784 -672 0
v -800 -672 0
v -800 -656 0
v -784 -656 0
v -864 -672 0
v -880 -672 0
v -880 -656 0
v -864 -656 0
v -880 -672 0
v -896 -672 0
v -896 -656 0
v -880 -656 0
v -768 -656 0
v -784 -656 0
v -784 -640 0
v -768 -640 0
v -784 -656 0
v -800 -656 0
v -800 -640 0
v -784 -640 0
v -800 -656 0
v -816 -656 0
v -816 -640 0
v -800 -640 0
v -848 -656 0
v -864 -656 0
v -864 -640 0
v -848 -640 0
v -864 -656 0
v -880 -656 0
v -880 -640 0
v -864 -640 0
v -880 -656 0
v -896 -656 0
v -896 -640 0
v -880 -640 0
v -784 -640 0
v -800 -640 0
v -800 -624 0
v -784 -624 0
v -800 -640 0
v -816 -640 0
v -816 -624 0
v -800 -624 0
v -816 -640 0
v -832 -640 0
v -832 -624 0
v -816 -624 0
v -832 -640 0
v -848 -640 0
v -848 -624 0
v -832 -624 0
v -848 -640 0
v -864 -640 0
v -864 -624 0
v -848 -624 0
v -864 -640 0
v -880 -640 0
v -880 -624 0
v -864 -624 0
v -800 -624 0
v -816 -624 0
v -816 -608 0
v -800 -608 0
v -816 -624 0
v -832 -624 0
v -832 -608 0
v -816 -608 0
v -832 -624 0
v -848 -624 0
v -848 -608 0
v -832 -608 0
v -848 -624 0
v -864 -624 0
v -864 -608 0
v -848 -608 0
v -816 -608 0
v -832 -608 0
v -832 -592 0
v -816 -592 0
v -832 -608 0
v -848 -608 0
v -848 -592 0
v -832 -592 0

# Texture cooridinates (Count = 32)
vt 0.6322314 0.8726236
vt 0.6487603 0.8726236
vt 0.6487603 0.9030418
vt 0.6322314 0.9030418
vt 0.7902893 0.9372624
vt 0.8068182 0.9372624
vt 0.8068182 0.9676806
vt 0.7902893 0.9676806
vt 0.5971074 0.2262357
vt 0.6136364 0.2262357
vt 0.6136364 0.256654
vt 0.5971074 0.256654
vt 0.6146694 0.2262357
vt 0.6311983 0.2262357
vt 0.6311983 0.256654
vt 0.6146694 0.256654
vt 0.5971074 0.2585551
vt 0.6136364 0.2585551
vt 0.6136364 0.2889734
vt 0.5971074 0.2889734
vt 0.6146694 0.2585551
vt 0.6311983 0.2585551
vt 0.6311983 0.2889734
vt 0.6146694 0.2889734
vt 0.5971074 0.2908745
vt 0.6136364 0.2908745
vt 0.6136364 0.3212928
vt 0.5971074 0.3212928
vt 0.6146694 0.2908745
vt 0.6311983 0.2908745
vt 0.6311983 0.3212928
vt 0.6146694 0.3212928

# Normal
vn 0 0 -1

# Mesh description
g sample2_mesh_0002

# Faces
f 1/1/1 2/2/1 3/3/1 4/4/1
f 5/5/1 6/6/1 7/7/1 8/8/1
f 9/5/1 10/6/1 11/7/1 12/8/1
f 13/9/1 14/10/1 15/11/1 16/12/1
f 17/13/1 18/14/1 19/15/1 20/16/1
f 21/17/1 22/18/1 23/19/1 24/20/1
f 25/9/1 26/10/1 27/11/1 28/12/1
f 29/13/1 30/14/1 31/15/1 32/16/1
f 33/21/1 34/22/1 35/23/1 36/24/1
f 37/25/1 38/26/1 39/27/1 40/28/1
f 41/17/1 42/18/1 43/19/1 44/20/1
f 45/9/1 46/10/1 47/11/1 48/12/1
f 49/13/1 50/14/1 51/15/1 52/16/1
f 53/21/1 54/22/1 55/23/1 56/24/1
f 57/29/1 58/30/1 59/31/1 60/32/1
f 61/25/1 62/26/1 63/27/1 64/28/1
f 65/17/1 66/18/1 67/19/1 68/20/1
f 69/9/1 70/10/1 71/11/1 72/12/1
f 73/13/1 74/14/1 75/15/1 76/16/1
f 77/21/1 78/22/1 79/23/1 80/24/1
f 81/29/1 82/30/1 83/31/1 84/32/1
f 85/25/1 86/26/1 87/27/1 88/28/1
f 89/17/1 90/18/1 91/19/1 92/20/1
f 93/21/1 94/22/1 95/23/1 96/24/1
f 97/29/1 98/30/1 99/31/1 100/32/1
f 101/25/1 102/26/1 103/27/1 104/28/1
f 105/29/1 106/30/1 107/31/1 108/32/1

