﻿# Tiled2Unity generated file. Do not modify by hand.
# Wavefront file for 'Stage4_mesh_0003.obj'

# Vertices (Count = 956)
v 0 -512 0
v -16 -512 0
v -16 -496 0
v 0 -496 0
v -16 -512 0
v -32 -512 0
v -32 -496 0
v -16 -496 0
v -32 -512 0
v -48 -512 0
v -48 -496 0
v -32 -496 0
v -48 -512 0
v -64 -512 0
v -64 -496 0
v -48 -496 0
v -64 -512 0
v -80 -512 0
v -80 -496 0
v -64 -496 0
v -80 -512 0
v -96 -512 0
v -96 -496 0
v -80 -496 0
v -96 -512 0
v -112 -512 0
v -112 -496 0
v -96 -496 0
v -112 -512 0
v -128 -512 0
v -128 -496 0
v -112 -496 0
v -128 -512 0
v -144 -512 0
v -144 -496 0
v -128 -496 0
v -144 -512 0
v -160 -512 0
v -160 -496 0
v -144 -496 0
v -160 -512 0
v -176 -512 0
v -176 -496 0
v -160 -496 0
v -176 -512 0
v -192 -512 0
v -192 -496 0
v -176 -496 0
v -192 -512 0
v -208 -512 0
v -208 -496 0
v -192 -496 0
v -208 -512 0
v -224 -512 0
v -224 -496 0
v -208 -496 0
v -224 -512 0
v -240 -512 0
v -240 -496 0
v -224 -496 0
v -240 -512 0
v -256 -512 0
v -256 -496 0
v -240 -496 0
v -256 -512 0
v -272 -512 0
v -272 -496 0
v -256 -496 0
v -272 -512 0
v -288 -512 0
v -288 -496 0
v -272 -496 0
v -288 -512 0
v -304 -512 0
v -304 -496 0
v -288 -496 0
v -304 -512 0
v -320 -512 0
v -320 -496 0
v -304 -496 0
v -320 -512 0
v -336 -512 0
v -336 -496 0
v -320 -496 0
v -336 -512 0
v -352 -512 0
v -352 -496 0
v -336 -496 0
v -352 -512 0
v -368 -512 0
v -368 -496 0
v -352 -496 0
v -368 -512 0
v -384 -512 0
v -384 -496 0
v -368 -496 0
v -384 -512 0
v -400 -512 0
v -400 -496 0
v -384 -496 0
v -400 -512 0
v -416 -512 0
v -416 -496 0
v -400 -496 0
v -416 -512 0
v -432 -512 0
v -432 -496 0
v -416 -496 0
v -432 -512 0
v -448 -512 0
v -448 -496 0
v -432 -496 0
v -448 -512 0
v -464 -512 0
v -464 -496 0
v -448 -496 0
v -464 -512 0
v -480 -512 0
v -480 -496 0
v -464 -496 0
v -480 -512 0
v -496 -512 0
v -496 -496 0
v -480 -496 0
v -496 -512 0
v -512 -512 0
v -512 -496 0
v -496 -496 0
v 0 -496 0
v -16 -496 0
v -16 -480 0
v 0 -480 0
v -384 -496 0
v -400 -496 0
v -400 -480 0
v -384 -480 0
v -496 -496 0
v -512 -496 0
v -512 -480 0
v -496 -480 0
v 0 -480 0
v -16 -480 0
v -16 -464 0
v 0 -464 0
v -384 -480 0
v -400 -480 0
v -400 -464 0
v -384 -464 0
v -496 -480 0
v -512 -480 0
v -512 -464 0
v -496 -464 0
v 0 -464 0
v -16 -464 0
v -16 -448 0
v 0 -448 0
v -384 -464 0
v -400 -464 0
v -400 -448 0
v -384 -448 0
v -496 -464 0
v -512 -464 0
v -512 -448 0
v -496 -448 0
v 0 -448 0
v -16 -448 0
v -16 -432 0
v 0 -432 0
v -384 -448 0
v -400 -448 0
v -400 -432 0
v -384 -432 0
v -480 -448 0
v -496 -448 0
v -496 -432 0
v -480 -432 0
v -496 -448 0
v -512 -448 0
v -512 -432 0
v -496 -432 0
v 0 -432 0
v -16 -432 0
v -16 -416 0
v 0 -416 0
v -16 -432 0
v -32 -432 0
v -32 -416 0
v -16 -416 0
v -32 -432 0
v -48 -432 0
v -48 -416 0
v -32 -416 0
v -48 -432 0
v -64 -432 0
v -64 -416 0
v -48 -416 0
v -64 -432 0
v -80 -432 0
v -80 -416 0
v -64 -416 0
v -208 -432 0
v -224 -432 0
v -224 -416 0
v -208 -416 0
v -224 -432 0
v -240 -432 0
v -240 -416 0
v -224 -416 0
v -240 -432 0
v -256 -432 0
v -256 -416 0
v -240 -416 0
v -256 -432 0
v -272 -432 0
v -272 -416 0
v -256 -416 0
v -320 -432 0
v -336 -432 0
v -336 -416 0
v -320 -416 0
v -336 -432 0
v -352 -432 0
v -352 -416 0
v -336 -416 0
v -352 -432 0
v -368 -432 0
v -368 -416 0
v -352 -416 0
v -368 -432 0
v -384 -432 0
v -384 -416 0
v -368 -416 0
v -384 -432 0
v -400 -432 0
v -400 -416 0
v -384 -416 0
v -448 -432 0
v -464 -432 0
v -464 -416 0
v -448 -416 0
v -464 -432 0
v -480 -432 0
v -480 -416 0
v -464 -416 0
v -480 -432 0
v -496 -432 0
v -496 -416 0
v -480 -416 0
v -496 -432 0
v -512 -432 0
v -512 -416 0
v -496 -416 0
v 0 -416 0
v -16 -416 0
v -16 -400 0
v 0 -400 0
v -384 -416 0
v -400 -416 0
v -400 -400 0
v -384 -400 0
v -496 -416 0
v -512 -416 0
v -512 -400 0
v -496 -400 0
v 0 -400 0
v -16 -400 0
v -16 -384 0
v 0 -384 0
v -384 -400 0
v -400 -400 0
v -400 -384 0
v -384 -384 0
v -496 -400 0
v -512 -400 0
v -512 -384 0
v -496 -384 0
v 0 -384 0
v -16 -384 0
v -16 -368 0
v 0 -368 0
v -384 -384 0
v -400 -384 0
v -400 -368 0
v -384 -368 0
v -496 -384 0
v -512 -384 0
v -512 -368 0
v -496 -368 0
v 0 -368 0
v -16 -368 0
v -16 -352 0
v 0 -352 0
v -384 -368 0
v -400 -368 0
v -400 -352 0
v -384 -352 0
v -496 -368 0
v -512 -368 0
v -512 -352 0
v -496 -352 0
v 0 -352 0
v -16 -352 0
v -16 -336 0
v 0 -336 0
v -80 -352 0
v -96 -352 0
v -96 -336 0
v -80 -336 0
v -96 -352 0
v -112 -352 0
v -112 -336 0
v -96 -336 0
v -112 -352 0
v -128 -352 0
v -128 -336 0
v -112 -336 0
v -128 -352 0
v -144 -352 0
v -144 -336 0
v -128 -336 0
v -144 -352 0
v -160 -352 0
v -160 -336 0
v -144 -336 0
v -160 -352 0
v -176 -352 0
v -176 -336 0
v -160 -336 0
v -176 -352 0
v -192 -352 0
v -192 -336 0
v -176 -336 0
v -192 -352 0
v -208 -352 0
v -208 -336 0
v -192 -336 0
v -208 -352 0
v -224 -352 0
v -224 -336 0
v -208 -336 0
v -224 -352 0
v -240 -352 0
v -240 -336 0
v -224 -336 0
v -240 -352 0
v -256 -352 0
v -256 -336 0
v -240 -336 0
v -256 -352 0
v -272 -352 0
v -272 -336 0
v -256 -336 0
v -272 -352 0
v -288 -352 0
v -288 -336 0
v -272 -336 0
v -288 -352 0
v -304 -352 0
v -304 -336 0
v -288 -336 0
v -304 -352 0
v -320 -352 0
v -320 -336 0
v -304 -336 0
v -320 -352 0
v -336 -352 0
v -336 -336 0
v -320 -336 0
v -384 -352 0
v -400 -352 0
v -400 -336 0
v -384 -336 0
v -496 -352 0
v -512 -352 0
v -512 -336 0
v -496 -336 0
v 0 -336 0
v -16 -336 0
v -16 -320 0
v 0 -320 0
v -384 -336 0
v -400 -336 0
v -400 -320 0
v -384 -320 0
v -496 -336 0
v -512 -336 0
v -512 -320 0
v -496 -320 0
v 0 -320 0
v -16 -320 0
v -16 -304 0
v 0 -304 0
v -496 -320 0
v -512 -320 0
v -512 -304 0
v -496 -304 0
v 0 -304 0
v -16 -304 0
v -16 -288 0
v 0 -288 0
v -496 -304 0
v -512 -304 0
v -512 -288 0
v -496 -288 0
v 0 -288 0
v -16 -288 0
v -16 -272 0
v 0 -272 0
v -496 -288 0
v -512 -288 0
v -512 -272 0
v -496 -272 0
v 0 -272 0
v -16 -272 0
v -16 -256 0
v 0 -256 0
v -496 -272 0
v -512 -272 0
v -512 -256 0
v -496 -256 0
v 0 -256 0
v -16 -256 0
v -16 -240 0
v 0 -240 0
v -80 -256 0
v -96 -256 0
v -96 -240 0
v -80 -240 0
v -96 -256 0
v -112 -256 0
v -112 -240 0
v -96 -240 0
v -112 -256 0
v -128 -256 0
v -128 -240 0
v -112 -240 0
v -128 -256 0
v -144 -256 0
v -144 -240 0
v -128 -240 0
v -144 -256 0
v -160 -256 0
v -160 -240 0
v -144 -240 0
v -160 -256 0
v -176 -256 0
v -176 -240 0
v -160 -240 0
v -176 -256 0
v -192 -256 0
v -192 -240 0
v -176 -240 0
v -192 -256 0
v -208 -256 0
v -208 -240 0
v -192 -240 0
v -208 -256 0
v -224 -256 0
v -224 -240 0
v -208 -240 0
v -224 -256 0
v -240 -256 0
v -240 -240 0
v -224 -240 0
v -240 -256 0
v -256 -256 0
v -256 -240 0
v -240 -240 0
v -256 -256 0
v -272 -256 0
v -272 -240 0
v -256 -240 0
v -272 -256 0
v -288 -256 0
v -288 -240 0
v -272 -240 0
v -288 -256 0
v -304 -256 0
v -304 -240 0
v -288 -240 0
v -304 -256 0
v -320 -256 0
v -320 -240 0
v -304 -240 0
v -320 -256 0
v -336 -256 0
v -336 -240 0
v -320 -240 0
v -384 -256 0
v -400 -256 0
v -400 -240 0
v -384 -240 0
v -400 -256 0
v -416 -256 0
v -416 -240 0
v -400 -240 0
v -416 -256 0
v -432 -256 0
v -432 -240 0
v -416 -240 0
v -432 -256 0
v -448 -256 0
v -448 -240 0
v -432 -240 0
v -448 -256 0
v -464 -256 0
v -464 -240 0
v -448 -240 0
v -464 -256 0
v -480 -256 0
v -480 -240 0
v -464 -240 0
v -480 -256 0
v -496 -256 0
v -496 -240 0
v -480 -240 0
v -496 -256 0
v -512 -256 0
v -512 -240 0
v -496 -240 0
v 0 -240 0
v -16 -240 0
v -16 -224 0
v 0 -224 0
v -496 -240 0
v -512 -240 0
v -512 -224 0
v -496 -224 0
v 0 -224 0
v -16 -224 0
v -16 -208 0
v 0 -208 0
v -496 -224 0
v -512 -224 0
v -512 -208 0
v -496 -208 0
v 0 -208 0
v -16 -208 0
v -16 -192 0
v 0 -192 0
v -496 -208 0
v -512 -208 0
v -512 -192 0
v -496 -192 0
v 0 -192 0
v -16 -192 0
v -16 -176 0
v 0 -176 0
v -496 -192 0
v -512 -192 0
v -512 -176 0
v -496 -176 0
v 0 -176 0
v -16 -176 0
v -16 -160 0
v 0 -160 0
v -48 -176 0
v -64 -176 0
v -64 -160 0
v -48 -160 0
v -64 -176 0
v -80 -176 0
v -80 -160 0
v -64 -160 0
v -80 -176 0
v -96 -176 0
v -96 -160 0
v -80 -160 0
v -96 -176 0
v -112 -176 0
v -112 -160 0
v -96 -160 0
v -112 -176 0
v -128 -176 0
v -128 -160 0
v -112 -160 0
v -128 -176 0
v -144 -176 0
v -144 -160 0
v -128 -160 0
v -496 -176 0
v -512 -176 0
v -512 -160 0
v -496 -160 0
v 0 -160 0
v -16 -160 0
v -16 -144 0
v 0 -144 0
v -336 -160 0
v -352 -160 0
v -352 -144 0
v -336 -144 0
v -352 -160 0
v -368 -160 0
v -368 -144 0
v -352 -144 0
v -368 -160 0
v -384 -160 0
v -384 -144 0
v -368 -144 0
v -384 -160 0
v -400 -160 0
v -400 -144 0
v -384 -144 0
v -400 -160 0
v -416 -160 0
v -416 -144 0
v -400 -144 0
v -416 -160 0
v -432 -160 0
v -432 -144 0
v -416 -144 0
v -496 -160 0
v -512 -160 0
v -512 -144 0
v -496 -144 0
v 0 -144 0
v -16 -144 0
v -16 -128 0
v 0 -128 0
v -496 -144 0
v -512 -144 0
v -512 -128 0
v -496 -128 0
v 0 -128 0
v -16 -128 0
v -16 -112 0
v 0 -112 0
v -496 -128 0
v -512 -128 0
v -512 -112 0
v -496 -112 0
v 0 -112 0
v -16 -112 0
v -16 -96 0
v 0 -96 0
v -192 -112 0
v -208 -112 0
v -208 -96 0
v -192 -96 0
v -208 -112 0
v -224 -112 0
v -224 -96 0
v -208 -96 0
v -224 -112 0
v -240 -112 0
v -240 -96 0
v -224 -96 0
v -240 -112 0
v -256 -112 0
v -256 -96 0
v -240 -96 0
v -256 -112 0
v -272 -112 0
v -272 -96 0
v -256 -96 0
v -272 -112 0
v -288 -112 0
v -288 -96 0
v -272 -96 0
v -496 -112 0
v -512 -112 0
v -512 -96 0
v -496 -96 0
v 0 -96 0
v -16 -96 0
v -16 -80 0
v 0 -80 0
v -496 -96 0
v -512 -96 0
v -512 -80 0
v -496 -80 0
v 0 -80 0
v -16 -80 0
v -16 -64 0
v 0 -64 0
v -496 -80 0
v -512 -80 0
v -512 -64 0
v -496 -64 0
v 0 -64 0
v -16 -64 0
v -16 -48 0
v 0 -48 0
v -496 -64 0
v -512 -64 0
v -512 -48 0
v -496 -48 0
v 0 -48 0
v -16 -48 0
v -16 -32 0
v 0 -32 0
v -48 -48 0
v -64 -48 0
v -64 -32 0
v -48 -32 0
v -496 -48 0
v -512 -48 0
v -512 -32 0
v -496 -32 0
v 0 -32 0
v -16 -32 0
v -16 -16 0
v 0 -16 0
v -16 -32 0
v -32 -32 0
v -32 -16 0
v -16 -16 0
v -32 -32 0
v -48 -32 0
v -48 -16 0
v -32 -16 0
v -48 -32 0
v -64 -32 0
v -64 -16 0
v -48 -16 0
v -64 -32 0
v -80 -32 0
v -80 -16 0
v -64 -16 0
v -80 -32 0
v -96 -32 0
v -96 -16 0
v -80 -16 0
v -96 -32 0
v -112 -32 0
v -112 -16 0
v -96 -16 0
v -112 -32 0
v -128 -32 0
v -128 -16 0
v -112 -16 0
v -128 -32 0
v -144 -32 0
v -144 -16 0
v -128 -16 0
v -144 -32 0
v -160 -32 0
v -160 -16 0
v -144 -16 0
v -160 -32 0
v -176 -32 0
v -176 -16 0
v -160 -16 0
v -176 -32 0
v -192 -32 0
v -192 -16 0
v -176 -16 0
v -192 -32 0
v -208 -32 0
v -208 -16 0
v -192 -16 0
v -208 -32 0
v -224 -32 0
v -224 -16 0
v -208 -16 0
v -224 -32 0
v -240 -32 0
v -240 -16 0
v -224 -16 0
v -240 -32 0
v -256 -32 0
v -256 -16 0
v -240 -16 0
v -256 -32 0
v -272 -32 0
v -272 -16 0
v -256 -16 0
v -272 -32 0
v -288 -32 0
v -288 -16 0
v -272 -16 0
v -288 -32 0
v -304 -32 0
v -304 -16 0
v -288 -16 0
v -304 -32 0
v -320 -32 0
v -320 -16 0
v -304 -16 0
v -320 -32 0
v -336 -32 0
v -336 -16 0
v -320 -16 0
v -336 -32 0
v -352 -32 0
v -352 -16 0
v -336 -16 0
v -352 -32 0
v -368 -32 0
v -368 -16 0
v -352 -16 0
v -368 -32 0
v -384 -32 0
v -384 -16 0
v -368 -16 0
v -384 -32 0
v -400 -32 0
v -400 -16 0
v -384 -16 0
v -400 -32 0
v -416 -32 0
v -416 -16 0
v -400 -16 0
v -416 -32 0
v -432 -32 0
v -432 -16 0
v -416 -16 0
v -432 -32 0
v -448 -32 0
v -448 -16 0
v -432 -16 0
v -448 -32 0
v -464 -32 0
v -464 -16 0
v -448 -16 0
v -464 -32 0
v -480 -32 0
v -480 -16 0
v -464 -16 0
v -480 -32 0
v -496 -32 0
v -496 -16 0
v -480 -16 0
v -496 -32 0
v -512 -32 0
v -512 -16 0
v -496 -16 0
v 0 -16 0
v -16 -16 0
v -16 0 0
v 0 0 0
v -16 -16 0
v -32 -16 0
v -32 0 0
v -16 0 0
v -32 -16 0
v -48 -16 0
v -48 0 0
v -32 0 0
v -48 -16 0
v -64 -16 0
v -64 0 0
v -48 0 0
v -64 -16 0
v -80 -16 0
v -80 0 0
v -64 0 0
v -80 -16 0
v -96 -16 0
v -96 0 0
v -80 0 0
v -96 -16 0
v -112 -16 0
v -112 0 0
v -96 0 0
v -112 -16 0
v -128 -16 0
v -128 0 0
v -112 0 0
v -128 -16 0
v -144 -16 0
v -144 0 0
v -128 0 0
v -144 -16 0
v -160 -16 0
v -160 0 0
v -144 0 0
v -160 -16 0
v -176 -16 0
v -176 0 0
v -160 0 0
v -176 -16 0
v -192 -16 0
v -192 0 0
v -176 0 0
v -192 -16 0
v -208 -16 0
v -208 0 0
v -192 0 0
v -208 -16 0
v -224 -16 0
v -224 0 0
v -208 0 0
v -224 -16 0
v -240 -16 0
v -240 0 0
v -224 0 0
v -240 -16 0
v -256 -16 0
v -256 0 0
v -240 0 0
v -256 -16 0
v -272 -16 0
v -272 0 0
v -256 0 0
v -272 -16 0
v -288 -16 0
v -288 0 0
v -272 0 0
v -288 -16 0
v -304 -16 0
v -304 0 0
v -288 0 0
v -304 -16 0
v -320 -16 0
v -320 0 0
v -304 0 0
v -320 -16 0
v -336 -16 0
v -336 0 0
v -320 0 0
v -336 -16 0
v -352 -16 0
v -352 0 0
v -336 0 0
v -352 -16 0
v -368 -16 0
v -368 0 0
v -352 0 0
v -368 -16 0
v -384 -16 0
v -384 0 0
v -368 0 0
v -384 -16 0
v -400 -16 0
v -400 0 0
v -384 0 0
v -400 -16 0
v -416 -16 0
v -416 0 0
v -400 0 0
v -416 -16 0
v -432 -16 0
v -432 0 0
v -416 0 0
v -432 -16 0
v -448 -16 0
v -448 0 0
v -432 0 0
v -448 -16 0
v -464 -16 0
v -464 0 0
v -448 0 0
v -464 -16 0
v -480 -16 0
v -480 0 0
v -464 0 0
v -480 -16 0
v -496 -16 0
v -496 0 0
v -480 0 0
v -496 -16 0
v -512 -16 0
v -512 0 0
v -496 0 0

# Texture cooridinates (Count = 4)
vt 1 0
vt 1 1
vt 0 1
vt 0 0

# Normal
vn 0 0 -1

# Mesh description
g Stage4_mesh_0003

# Faces
f 1/1/1 2/2/1 3/3/1 4/4/1
f 5/4/1 6/1/1 7/2/1 8/3/1
f 9/4/1 10/1/1 11/2/1 12/3/1
f 13/4/1 14/1/1 15/2/1 16/3/1
f 17/4/1 18/1/1 19/2/1 20/3/1
f 21/4/1 22/1/1 23/2/1 24/3/1
f 25/4/1 26/1/1 27/2/1 28/3/1
f 29/4/1 30/1/1 31/2/1 32/3/1
f 33/4/1 34/1/1 35/2/1 36/3/1
f 37/4/1 38/1/1 39/2/1 40/3/1
f 41/4/1 42/1/1 43/2/1 44/3/1
f 45/4/1 46/1/1 47/2/1 48/3/1
f 49/4/1 50/1/1 51/2/1 52/3/1
f 53/4/1 54/1/1 55/2/1 56/3/1
f 57/4/1 58/1/1 59/2/1 60/3/1
f 61/4/1 62/1/1 63/2/1 64/3/1
f 65/4/1 66/1/1 67/2/1 68/3/1
f 69/4/1 70/1/1 71/2/1 72/3/1
f 73/4/1 74/1/1 75/2/1 76/3/1
f 77/4/1 78/1/1 79/2/1 80/3/1
f 81/4/1 82/1/1 83/2/1 84/3/1
f 85/4/1 86/1/1 87/2/1 88/3/1
f 89/4/1 90/1/1 91/2/1 92/3/1
f 93/4/1 94/1/1 95/2/1 96/3/1
f 97/1/1 98/2/1 99/3/1 100/4/1
f 101/4/1 102/1/1 103/2/1 104/3/1
f 105/4/1 106/1/1 107/2/1 108/3/1
f 109/4/1 110/1/1 111/2/1 112/3/1
f 113/4/1 114/1/1 115/2/1 116/3/1
f 117/4/1 118/1/1 119/2/1 120/3/1
f 121/4/1 122/1/1 123/2/1 124/3/1
f 125/1/1 126/2/1 127/3/1 128/4/1
f 129/1/1 130/2/1 131/3/1 132/4/1
f 133/1/1 134/2/1 135/3/1 136/4/1
f 137/1/1 138/2/1 139/3/1 140/4/1
f 141/1/1 142/2/1 143/3/1 144/4/1
f 145/1/1 146/2/1 147/3/1 148/4/1
f 149/1/1 150/2/1 151/3/1 152/4/1
f 153/1/1 154/2/1 155/3/1 156/4/1
f 157/1/1 158/2/1 159/3/1 160/4/1
f 161/1/1 162/2/1 163/3/1 164/4/1
f 165/1/1 166/2/1 167/3/1 168/4/1
f 169/1/1 170/2/1 171/3/1 172/4/1
f 173/4/1 174/1/1 175/2/1 176/3/1
f 177/1/1 178/2/1 179/3/1 180/4/1
f 181/2/1 182/3/1 183/4/1 184/1/1
f 185/2/1 186/3/1 187/4/1 188/1/1
f 189/2/1 190/3/1 191/4/1 192/1/1
f 193/2/1 194/3/1 195/4/1 196/1/1
f 197/2/1 198/3/1 199/4/1 200/1/1
f 201/2/1 202/3/1 203/4/1 204/1/1
f 205/2/1 206/3/1 207/4/1 208/1/1
f 209/2/1 210/3/1 211/4/1 212/1/1
f 213/2/1 214/3/1 215/4/1 216/1/1
f 217/2/1 218/3/1 219/4/1 220/1/1
f 221/2/1 222/3/1 223/4/1 224/1/1
f 225/2/1 226/3/1 227/4/1 228/1/1
f 229/2/1 230/3/1 231/4/1 232/1/1
f 233/1/1 234/2/1 235/3/1 236/4/1
f 237/4/1 238/1/1 239/2/1 240/3/1
f 241/4/1 242/1/1 243/2/1 244/3/1
f 245/4/1 246/1/1 247/2/1 248/3/1
f 249/1/1 250/2/1 251/3/1 252/4/1
f 253/1/1 254/2/1 255/3/1 256/4/1
f 257/1/1 258/2/1 259/3/1 260/4/1
f 261/1/1 262/2/1 263/3/1 264/4/1
f 265/1/1 266/2/1 267/3/1 268/4/1
f 269/1/1 270/2/1 271/3/1 272/4/1
f 273/1/1 274/2/1 275/3/1 276/4/1
f 277/1/1 278/2/1 279/3/1 280/4/1
f 281/1/1 282/2/1 283/3/1 284/4/1
f 285/1/1 286/2/1 287/3/1 288/4/1
f 289/1/1 290/2/1 291/3/1 292/4/1
f 293/1/1 294/2/1 295/3/1 296/4/1
f 297/1/1 298/2/1 299/3/1 300/4/1
f 301/1/1 302/2/1 303/3/1 304/4/1
f 305/4/1 306/1/1 307/2/1 308/3/1
f 309/4/1 310/1/1 311/2/1 312/3/1
f 313/4/1 314/1/1 315/2/1 316/3/1
f 317/4/1 318/1/1 319/2/1 320/3/1
f 321/4/1 322/1/1 323/2/1 324/3/1
f 325/4/1 326/1/1 327/2/1 328/3/1
f 329/4/1 330/1/1 331/2/1 332/3/1
f 333/4/1 334/1/1 335/2/1 336/3/1
f 337/4/1 338/1/1 339/2/1 340/3/1
f 341/4/1 342/1/1 343/2/1 344/3/1
f 345/4/1 346/1/1 347/2/1 348/3/1
f 349/4/1 350/1/1 351/2/1 352/3/1
f 353/4/1 354/1/1 355/2/1 356/3/1
f 357/4/1 358/1/1 359/2/1 360/3/1
f 361/4/1 362/1/1 363/2/1 364/3/1
f 365/4/1 366/1/1 367/2/1 368/3/1
f 369/1/1 370/2/1 371/3/1 372/4/1
f 373/1/1 374/2/1 375/3/1 376/4/1
f 377/1/1 378/2/1 379/3/1 380/4/1
f 381/1/1 382/2/1 383/3/1 384/4/1
f 385/4/1 386/1/1 387/2/1 388/3/1
f 389/1/1 390/2/1 391/3/1 392/4/1
f 393/4/1 394/1/1 395/2/1 396/3/1
f 397/1/1 398/2/1 399/3/1 400/4/1
f 401/4/1 402/1/1 403/2/1 404/3/1
f 405/1/1 406/2/1 407/3/1 408/4/1
f 409/4/1 410/1/1 411/2/1 412/3/1
f 413/1/1 414/2/1 415/3/1 416/4/1
f 417/4/1 418/1/1 419/2/1 420/3/1
f 421/1/1 422/2/1 423/3/1 424/4/1
f 425/4/1 426/1/1 427/2/1 428/3/1
f 429/4/1 430/1/1 431/2/1 432/3/1
f 433/4/1 434/1/1 435/2/1 436/3/1
f 437/4/1 438/1/1 439/2/1 440/3/1
f 441/4/1 442/1/1 443/2/1 444/3/1
f 445/4/1 446/1/1 447/2/1 448/3/1
f 449/4/1 450/1/1 451/2/1 452/3/1
f 453/4/1 454/1/1 455/2/1 456/3/1
f 457/4/1 458/1/1 459/2/1 460/3/1
f 461/4/1 462/1/1 463/2/1 464/3/1
f 465/4/1 466/1/1 467/2/1 468/3/1
f 469/4/1 470/1/1 471/2/1 472/3/1
f 473/4/1 474/1/1 475/2/1 476/3/1
f 477/4/1 478/1/1 479/2/1 480/3/1
f 481/4/1 482/1/1 483/2/1 484/3/1
f 485/4/1 486/1/1 487/2/1 488/3/1
f 489/4/1 490/1/1 491/2/1 492/3/1
f 493/4/1 494/1/1 495/2/1 496/3/1
f 497/4/1 498/1/1 499/2/1 500/3/1
f 501/4/1 502/1/1 503/2/1 504/3/1
f 505/4/1 506/1/1 507/2/1 508/3/1
f 509/4/1 510/1/1 511/2/1 512/3/1
f 513/4/1 514/1/1 515/2/1 516/3/1
f 517/4/1 518/1/1 519/2/1 520/3/1
f 521/1/1 522/2/1 523/3/1 524/4/1
f 525/4/1 526/1/1 527/2/1 528/3/1
f 529/1/1 530/2/1 531/3/1 532/4/1
f 533/4/1 534/1/1 535/2/1 536/3/1
f 537/1/1 538/2/1 539/3/1 540/4/1
f 541/4/1 542/1/1 543/2/1 544/3/1
f 545/1/1 546/2/1 547/3/1 548/4/1
f 549/4/1 550/1/1 551/2/1 552/3/1
f 553/1/1 554/2/1 555/3/1 556/4/1
f 557/2/1 558/3/1 559/4/1 560/1/1
f 561/2/1 562/3/1 563/4/1 564/1/1
f 565/2/1 566/3/1 567/4/1 568/1/1
f 569/2/1 570/3/1 571/4/1 572/1/1
f 573/2/1 574/3/1 575/4/1 576/1/1
f 577/2/1 578/3/1 579/4/1 580/1/1
f 581/3/1 582/4/1 583/1/1 584/2/1
f 585/1/1 586/2/1 587/3/1 588/4/1
f 589/2/1 590/3/1 591/4/1 592/1/1
f 593/2/1 594/3/1 595/4/1 596/1/1
f 597/2/1 598/3/1 599/4/1 600/1/1
f 601/2/1 602/3/1 603/4/1 604/1/1
f 605/2/1 606/3/1 607/4/1 608/1/1
f 609/2/1 610/3/1 611/4/1 612/1/1
f 613/3/1 614/4/1 615/1/1 616/2/1
f 617/1/1 618/2/1 619/3/1 620/4/1
f 621/3/1 622/4/1 623/1/1 624/2/1
f 625/1/1 626/2/1 627/3/1 628/4/1
f 629/3/1 630/4/1 631/1/1 632/2/1
f 633/1/1 634/2/1 635/3/1 636/4/1
f 637/2/1 638/3/1 639/4/1 640/1/1
f 641/2/1 642/3/1 643/4/1 644/1/1
f 645/2/1 646/3/1 647/4/1 648/1/1
f 649/2/1 650/3/1 651/4/1 652/1/1
f 653/2/1 654/3/1 655/4/1 656/1/1
f 657/2/1 658/3/1 659/4/1 660/1/1
f 661/3/1 662/4/1 663/1/1 664/2/1
f 665/1/1 666/2/1 667/3/1 668/4/1
f 669/3/1 670/4/1 671/1/1 672/2/1
f 673/1/1 674/2/1 675/3/1 676/4/1
f 677/3/1 678/4/1 679/1/1 680/2/1
f 681/1/1 682/2/1 683/3/1 684/4/1
f 685/3/1 686/4/1 687/1/1 688/2/1
f 689/1/1 690/2/1 691/3/1 692/4/1
f 693/3/1 694/4/1 695/1/1 696/2/1
f 697/3/1 698/4/1 699/1/1 700/2/1
f 701/2/1 702/3/1 703/4/1 704/1/1
f 705/2/1 706/3/1 707/4/1 708/1/1
f 709/2/1 710/3/1 711/4/1 712/1/1
f 713/3/1 714/4/1 715/1/1 716/2/1
f 717/2/1 718/3/1 719/4/1 720/1/1
f 721/2/1 722/3/1 723/4/1 724/1/1
f 725/2/1 726/3/1 727/4/1 728/1/1
f 729/2/1 730/3/1 731/4/1 732/1/1
f 733/2/1 734/3/1 735/4/1 736/1/1
f 737/2/1 738/3/1 739/4/1 740/1/1
f 741/2/1 742/3/1 743/4/1 744/1/1
f 745/2/1 746/3/1 747/4/1 748/1/1
f 749/2/1 750/3/1 751/4/1 752/1/1
f 753/2/1 754/3/1 755/4/1 756/1/1
f 757/2/1 758/3/1 759/4/1 760/1/1
f 761/2/1 762/3/1 763/4/1 764/1/1
f 765/2/1 766/3/1 767/4/1 768/1/1
f 769/2/1 770/3/1 771/4/1 772/1/1
f 773/2/1 774/3/1 775/4/1 776/1/1
f 777/2/1 778/3/1 779/4/1 780/1/1
f 781/2/1 782/3/1 783/4/1 784/1/1
f 785/2/1 786/3/1 787/4/1 788/1/1
f 789/2/1 790/3/1 791/4/1 792/1/1
f 793/2/1 794/3/1 795/4/1 796/1/1
f 797/2/1 798/3/1 799/4/1 800/1/1
f 801/2/1 802/3/1 803/4/1 804/1/1
f 805/2/1 806/3/1 807/4/1 808/1/1
f 809/2/1 810/3/1 811/4/1 812/1/1
f 813/2/1 814/3/1 815/4/1 816/1/1
f 817/2/1 818/3/1 819/4/1 820/1/1
f 821/2/1 822/3/1 823/4/1 824/1/1
f 825/3/1 826/4/1 827/1/1 828/2/1
f 829/2/1 830/3/1 831/4/1 832/1/1
f 833/2/1 834/3/1 835/4/1 836/1/1
f 837/2/1 838/3/1 839/4/1 840/1/1
f 841/3/1 842/4/1 843/1/1 844/2/1
f 845/2/1 846/3/1 847/4/1 848/1/1
f 849/2/1 850/3/1 851/4/1 852/1/1
f 853/2/1 854/3/1 855/4/1 856/1/1
f 857/2/1 858/3/1 859/4/1 860/1/1
f 861/2/1 862/3/1 863/4/1 864/1/1
f 865/2/1 866/3/1 867/4/1 868/1/1
f 869/2/1 870/3/1 871/4/1 872/1/1
f 873/2/1 874/3/1 875/4/1 876/1/1
f 877/2/1 878/3/1 879/4/1 880/1/1
f 881/2/1 882/3/1 883/4/1 884/1/1
f 885/2/1 886/3/1 887/4/1 888/1/1
f 889/2/1 890/3/1 891/4/1 892/1/1
f 893/2/1 894/3/1 895/4/1 896/1/1
f 897/2/1 898/3/1 899/4/1 900/1/1
f 901/2/1 902/3/1 903/4/1 904/1/1
f 905/2/1 906/3/1 907/4/1 908/1/1
f 909/2/1 910/3/1 911/4/1 912/1/1
f 913/2/1 914/3/1 915/4/1 916/1/1
f 917/2/1 918/3/1 919/4/1 920/1/1
f 921/2/1 922/3/1 923/4/1 924/1/1
f 925/2/1 926/3/1 927/4/1 928/1/1
f 929/2/1 930/3/1 931/4/1 932/1/1
f 933/2/1 934/3/1 935/4/1 936/1/1
f 937/2/1 938/3/1 939/4/1 940/1/1
f 941/2/1 942/3/1 943/4/1 944/1/1
f 945/2/1 946/3/1 947/4/1 948/1/1
f 949/2/1 950/3/1 951/4/1 952/1/1
f 953/3/1 954/4/1 955/1/1 956/2/1

