﻿# Tiled2Unity generated file. Do not modify by hand.
# Wavefront file for 'Stage1_mesh_0007.obj'

# Vertices (Count = 4)
v -384 -592 0
v -400 -592 0
v -400 -576 0
v -384 -576 0

# Texture cooridinates (Count = 4)
vt 0.6322314 0.8726236
vt 0.6487603 0.8726236
vt 0.6487603 0.9030418
vt 0.6322314 0.9030418

# Normal
vn 0 0 -1

# Mesh description
g Stage1_mesh_0007

# Faces
f 1/1/1 2/2/1 3/3/1 4/4/1

