﻿# Tiled2Unity generated file. Do not modify by hand.
# Wavefront file for 'Stage1_mesh_0004.obj'

# Vertices (Count = 824)
v 0 -512 0
v -16 -512 0
v -16 -496 0
v 0 -496 0
v -16 -512 0
v -32 -512 0
v -32 -496 0
v -16 -496 0
v -32 -512 0
v -48 -512 0
v -48 -496 0
v -32 -496 0
v -48 -512 0
v -64 -512 0
v -64 -496 0
v -48 -496 0
v -64 -512 0
v -80 -512 0
v -80 -496 0
v -64 -496 0
v -80 -512 0
v -96 -512 0
v -96 -496 0
v -80 -496 0
v -96 -512 0
v -112 -512 0
v -112 -496 0
v -96 -496 0
v -112 -512 0
v -128 -512 0
v -128 -496 0
v -112 -496 0
v -128 -512 0
v -144 -512 0
v -144 -496 0
v -128 -496 0
v -144 -512 0
v -160 -512 0
v -160 -496 0
v -144 -496 0
v -160 -512 0
v -176 -512 0
v -176 -496 0
v -160 -496 0
v -176 -512 0
v -192 -512 0
v -192 -496 0
v -176 -496 0
v -192 -512 0
v -208 -512 0
v -208 -496 0
v -192 -496 0
v -208 -512 0
v -224 -512 0
v -224 -496 0
v -208 -496 0
v -224 -512 0
v -240 -512 0
v -240 -496 0
v -224 -496 0
v -240 -512 0
v -256 -512 0
v -256 -496 0
v -240 -496 0
v -256 -512 0
v -272 -512 0
v -272 -496 0
v -256 -496 0
v -272 -512 0
v -288 -512 0
v -288 -496 0
v -272 -496 0
v -288 -512 0
v -304 -512 0
v -304 -496 0
v -288 -496 0
v -304 -512 0
v -320 -512 0
v -320 -496 0
v -304 -496 0
v -320 -512 0
v -336 -512 0
v -336 -496 0
v -320 -496 0
v -336 -512 0
v -352 -512 0
v -352 -496 0
v -336 -496 0
v -352 -512 0
v -368 -512 0
v -368 -496 0
v -352 -496 0
v -368 -512 0
v -384 -512 0
v -384 -496 0
v -368 -496 0
v -384 -512 0
v -400 -512 0
v -400 -496 0
v -384 -496 0
v -400 -512 0
v -416 -512 0
v -416 -496 0
v -400 -496 0
v -416 -512 0
v -432 -512 0
v -432 -496 0
v -416 -496 0
v -432 -512 0
v -448 -512 0
v -448 -496 0
v -432 -496 0
v -448 -512 0
v -464 -512 0
v -464 -496 0
v -448 -496 0
v -464 -512 0
v -480 -512 0
v -480 -496 0
v -464 -496 0
v -480 -512 0
v -496 -512 0
v -496 -496 0
v -480 -496 0
v -496 -512 0
v -512 -512 0
v -512 -496 0
v -496 -496 0
v 0 -496 0
v -16 -496 0
v -16 -480 0
v 0 -480 0
v -320 -496 0
v -336 -496 0
v -336 -480 0
v -320 -480 0
v -496 -496 0
v -512 -496 0
v -512 -480 0
v -496 -480 0
v 0 -480 0
v -16 -480 0
v -16 -464 0
v 0 -464 0
v -320 -480 0
v -336 -480 0
v -336 -464 0
v -320 -464 0
v -496 -480 0
v -512 -480 0
v -512 -464 0
v -496 -464 0
v 0 -464 0
v -16 -464 0
v -16 -448 0
v 0 -448 0
v -320 -464 0
v -336 -464 0
v -336 -448 0
v -320 -448 0
v -496 -464 0
v -512 -464 0
v -512 -448 0
v -496 -448 0
v 0 -448 0
v -16 -448 0
v -16 -432 0
v 0 -432 0
v -320 -448 0
v -336 -448 0
v -336 -432 0
v -320 -432 0
v -496 -448 0
v -512 -448 0
v -512 -432 0
v -496 -432 0
v 0 -432 0
v -16 -432 0
v -16 -416 0
v 0 -416 0
v -320 -432 0
v -336 -432 0
v -336 -416 0
v -320 -416 0
v -496 -432 0
v -512 -432 0
v -512 -416 0
v -496 -416 0
v 0 -416 0
v -16 -416 0
v -16 -400 0
v 0 -400 0
v -320 -416 0
v -336 -416 0
v -336 -400 0
v -320 -400 0
v -496 -416 0
v -512 -416 0
v -512 -400 0
v -496 -400 0
v 0 -400 0
v -16 -400 0
v -16 -384 0
v 0 -384 0
v -320 -400 0
v -336 -400 0
v -336 -384 0
v -320 -384 0
v -496 -400 0
v -512 -400 0
v -512 -384 0
v -496 -384 0
v 0 -384 0
v -16 -384 0
v -16 -368 0
v 0 -368 0
v -320 -384 0
v -336 -384 0
v -336 -368 0
v -320 -368 0
v -496 -384 0
v -512 -384 0
v -512 -368 0
v -496 -368 0
v 0 -368 0
v -16 -368 0
v -16 -352 0
v 0 -352 0
v -16 -368 0
v -32 -368 0
v -32 -352 0
v -16 -352 0
v -32 -368 0
v -48 -368 0
v -48 -352 0
v -32 -352 0
v -48 -368 0
v -64 -368 0
v -64 -352 0
v -48 -352 0
v -64 -368 0
v -80 -368 0
v -80 -352 0
v -64 -352 0
v -80 -368 0
v -96 -368 0
v -96 -352 0
v -80 -352 0
v -96 -368 0
v -112 -368 0
v -112 -352 0
v -96 -352 0
v -112 -368 0
v -128 -368 0
v -128 -352 0
v -112 -352 0
v -128 -368 0
v -144 -368 0
v -144 -352 0
v -128 -352 0
v -144 -368 0
v -160 -368 0
v -160 -352 0
v -144 -352 0
v -160 -368 0
v -176 -368 0
v -176 -352 0
v -160 -352 0
v -176 -368 0
v -192 -368 0
v -192 -352 0
v -176 -352 0
v -192 -368 0
v -208 -368 0
v -208 -352 0
v -192 -352 0
v -208 -368 0
v -224 -368 0
v -224 -352 0
v -208 -352 0
v -224 -368 0
v -240 -368 0
v -240 -352 0
v -224 -352 0
v -240 -368 0
v -256 -368 0
v -256 -352 0
v -240 -352 0
v -256 -368 0
v -272 -368 0
v -272 -352 0
v -256 -352 0
v -272 -368 0
v -288 -368 0
v -288 -352 0
v -272 -352 0
v -320 -368 0
v -336 -368 0
v -336 -352 0
v -320 -352 0
v -496 -368 0
v -512 -368 0
v -512 -352 0
v -496 -352 0
v 0 -352 0
v -16 -352 0
v -16 -336 0
v 0 -336 0
v -320 -352 0
v -336 -352 0
v -336 -336 0
v -320 -336 0
v -496 -352 0
v -512 -352 0
v -512 -336 0
v -496 -336 0
v 0 -336 0
v -16 -336 0
v -16 -320 0
v 0 -320 0
v -320 -336 0
v -336 -336 0
v -336 -320 0
v -320 -320 0
v -496 -336 0
v -512 -336 0
v -512 -320 0
v -496 -320 0
v 0 -320 0
v -16 -320 0
v -16 -304 0
v 0 -304 0
v -320 -320 0
v -336 -320 0
v -336 -304 0
v -320 -304 0
v -496 -320 0
v -512 -320 0
v -512 -304 0
v -496 -304 0
v 0 -304 0
v -16 -304 0
v -16 -288 0
v 0 -288 0
v -320 -304 0
v -336 -304 0
v -336 -288 0
v -320 -288 0
v -496 -304 0
v -512 -304 0
v -512 -288 0
v -496 -288 0
v 0 -288 0
v -16 -288 0
v -16 -272 0
v 0 -272 0
v -32 -288 0
v -48 -288 0
v -48 -272 0
v -32 -272 0
v -96 -288 0
v -112 -288 0
v -112 -272 0
v -96 -272 0
v -320 -288 0
v -336 -288 0
v -336 -272 0
v -320 -272 0
v -496 -288 0
v -512 -288 0
v -512 -272 0
v -496 -272 0
v 0 -272 0
v -16 -272 0
v -16 -256 0
v 0 -256 0
v -16 -272 0
v -32 -272 0
v -32 -256 0
v -16 -256 0
v -32 -272 0
v -48 -272 0
v -48 -256 0
v -32 -256 0
v -96 -272 0
v -112 -272 0
v -112 -256 0
v -96 -256 0
v -112 -272 0
v -128 -272 0
v -128 -256 0
v -112 -256 0
v -128 -272 0
v -144 -272 0
v -144 -256 0
v -128 -256 0
v -144 -272 0
v -160 -272 0
v -160 -256 0
v -144 -256 0
v -160 -272 0
v -176 -272 0
v -176 -256 0
v -160 -256 0
v -176 -272 0
v -192 -272 0
v -192 -256 0
v -176 -256 0
v -192 -272 0
v -208 -272 0
v -208 -256 0
v -192 -256 0
v -208 -272 0
v -224 -272 0
v -224 -256 0
v -208 -256 0
v -224 -272 0
v -240 -272 0
v -240 -256 0
v -224 -256 0
v -240 -272 0
v -256 -272 0
v -256 -256 0
v -240 -256 0
v -256 -272 0
v -272 -272 0
v -272 -256 0
v -256 -256 0
v -272 -272 0
v -288 -272 0
v -288 -256 0
v -272 -256 0
v -288 -272 0
v -304 -272 0
v -304 -256 0
v -288 -256 0
v -304 -272 0
v -320 -272 0
v -320 -256 0
v -304 -256 0
v -320 -272 0
v -336 -272 0
v -336 -256 0
v -320 -256 0
v -496 -272 0
v -512 -272 0
v -512 -256 0
v -496 -256 0
v 0 -256 0
v -16 -256 0
v -16 -240 0
v 0 -240 0
v -320 -256 0
v -336 -256 0
v -336 -240 0
v -320 -240 0
v -496 -256 0
v -512 -256 0
v -512 -240 0
v -496 -240 0
v 0 -240 0
v -16 -240 0
v -16 -224 0
v 0 -224 0
v -496 -240 0
v -512 -240 0
v -512 -224 0
v -496 -224 0
v 0 -224 0
v -16 -224 0
v -16 -208 0
v 0 -208 0
v -496 -224 0
v -512 -224 0
v -512 -208 0
v -496 -208 0
v 0 -208 0
v -16 -208 0
v -16 -192 0
v 0 -192 0
v -496 -208 0
v -512 -208 0
v -512 -192 0
v -496 -192 0
v 0 -192 0
v -16 -192 0
v -16 -176 0
v 0 -176 0
v -384 -192 0
v -400 -192 0
v -400 -176 0
v -384 -176 0
v -496 -192 0
v -512 -192 0
v -512 -176 0
v -496 -176 0
v 0 -176 0
v -16 -176 0
v -16 -160 0
v 0 -160 0
v -16 -176 0
v -32 -176 0
v -32 -160 0
v -16 -160 0
v -32 -176 0
v -48 -176 0
v -48 -160 0
v -32 -160 0
v -48 -176 0
v -64 -176 0
v -64 -160 0
v -48 -160 0
v -64 -176 0
v -80 -176 0
v -80 -160 0
v -64 -160 0
v -80 -176 0
v -96 -176 0
v -96 -160 0
v -80 -160 0
v -96 -176 0
v -112 -176 0
v -112 -160 0
v -96 -160 0
v -112 -176 0
v -128 -176 0
v -128 -160 0
v -112 -160 0
v -128 -176 0
v -144 -176 0
v -144 -160 0
v -128 -160 0
v -144 -176 0
v -160 -176 0
v -160 -160 0
v -144 -160 0
v -160 -176 0
v -176 -176 0
v -176 -160 0
v -160 -160 0
v -176 -176 0
v -192 -176 0
v -192 -160 0
v -176 -160 0
v -192 -176 0
v -208 -176 0
v -208 -160 0
v -192 -160 0
v -208 -176 0
v -224 -176 0
v -224 -160 0
v -208 -160 0
v -224 -176 0
v -240 -176 0
v -240 -160 0
v -224 -160 0
v -240 -176 0
v -256 -176 0
v -256 -160 0
v -240 -160 0
v -256 -176 0
v -272 -176 0
v -272 -160 0
v -256 -160 0
v -272 -176 0
v -288 -176 0
v -288 -160 0
v -272 -160 0
v -288 -176 0
v -304 -176 0
v -304 -160 0
v -288 -160 0
v -304 -176 0
v -320 -176 0
v -320 -160 0
v -304 -160 0
v -320 -176 0
v -336 -176 0
v -336 -160 0
v -320 -160 0
v -336 -176 0
v -352 -176 0
v -352 -160 0
v -336 -160 0
v -352 -176 0
v -368 -176 0
v -368 -160 0
v -352 -160 0
v -368 -176 0
v -384 -176 0
v -384 -160 0
v -368 -160 0
v -384 -176 0
v -400 -176 0
v -400 -160 0
v -384 -160 0
v -496 -176 0
v -512 -176 0
v -512 -160 0
v -496 -160 0
v 0 -160 0
v -16 -160 0
v -16 -144 0
v 0 -144 0
v -16 -160 0
v -32 -160 0
v -32 -144 0
v -16 -144 0
v -32 -160 0
v -48 -160 0
v -48 -144 0
v -32 -144 0
v -48 -160 0
v -64 -160 0
v -64 -144 0
v -48 -144 0
v -64 -160 0
v -80 -160 0
v -80 -144 0
v -64 -144 0
v -80 -160 0
v -96 -160 0
v -96 -144 0
v -80 -144 0
v -96 -160 0
v -112 -160 0
v -112 -144 0
v -96 -144 0
v -112 -160 0
v -128 -160 0
v -128 -144 0
v -112 -144 0
v -128 -160 0
v -144 -160 0
v -144 -144 0
v -128 -144 0
v -144 -160 0
v -160 -160 0
v -160 -144 0
v -144 -144 0
v -160 -160 0
v -176 -160 0
v -176 -144 0
v -160 -144 0
v -176 -160 0
v -192 -160 0
v -192 -144 0
v -176 -144 0
v -192 -160 0
v -208 -160 0
v -208 -144 0
v -192 -144 0
v -208 -160 0
v -224 -160 0
v -224 -144 0
v -208 -144 0
v -224 -160 0
v -240 -160 0
v -240 -144 0
v -224 -144 0
v -240 -160 0
v -256 -160 0
v -256 -144 0
v -240 -144 0
v -256 -160 0
v -272 -160 0
v -272 -144 0
v -256 -144 0
v -272 -160 0
v -288 -160 0
v -288 -144 0
v -272 -144 0
v -288 -160 0
v -304 -160 0
v -304 -144 0
v -288 -144 0
v -304 -160 0
v -320 -160 0
v -320 -144 0
v -304 -144 0
v -320 -160 0
v -336 -160 0
v -336 -144 0
v -320 -144 0
v -336 -160 0
v -352 -160 0
v -352 -144 0
v -336 -144 0
v -352 -160 0
v -368 -160 0
v -368 -144 0
v -352 -144 0
v -368 -160 0
v -384 -160 0
v -384 -144 0
v -368 -144 0
v -384 -160 0
v -400 -160 0
v -400 -144 0
v -384 -144 0
v -496 -160 0
v -512 -160 0
v -512 -144 0
v -496 -144 0
v -384 -144 0
v -400 -144 0
v -400 -128 0
v -384 -128 0
v -496 -144 0
v -512 -144 0
v -512 -128 0
v -496 -128 0
v -384 -128 0
v -400 -128 0
v -400 -112 0
v -384 -112 0
v -496 -128 0
v -512 -128 0
v -512 -112 0
v -496 -112 0
v -384 -112 0
v -400 -112 0
v -400 -96 0
v -384 -96 0
v -496 -112 0
v -512 -112 0
v -512 -96 0
v -496 -96 0
v -384 -96 0
v -400 -96 0
v -400 -80 0
v -384 -80 0
v -496 -96 0
v -512 -96 0
v -512 -80 0
v -496 -80 0
v -384 -80 0
v -400 -80 0
v -400 -64 0
v -384 -64 0
v -496 -80 0
v -512 -80 0
v -512 -64 0
v -496 -64 0
v -384 -64 0
v -400 -64 0
v -400 -48 0
v -384 -48 0
v -496 -64 0
v -512 -64 0
v -512 -48 0
v -496 -48 0
v -384 -48 0
v -400 -48 0
v -400 -32 0
v -384 -32 0
v -496 -48 0
v -512 -48 0
v -512 -32 0
v -496 -32 0
v -384 -32 0
v -400 -32 0
v -400 -16 0
v -384 -16 0
v -400 -32 0
v -416 -32 0
v -416 -16 0
v -400 -16 0
v -416 -32 0
v -432 -32 0
v -432 -16 0
v -416 -16 0
v -432 -32 0
v -448 -32 0
v -448 -16 0
v -432 -16 0
v -448 -32 0
v -464 -32 0
v -464 -16 0
v -448 -16 0
v -464 -32 0
v -480 -32 0
v -480 -16 0
v -464 -16 0
v -480 -32 0
v -496 -32 0
v -496 -16 0
v -480 -16 0
v -496 -32 0
v -512 -32 0
v -512 -16 0
v -496 -16 0
v -384 -16 0
v -400 -16 0
v -400 0 0
v -384 0 0
v -400 -16 0
v -416 -16 0
v -416 0 0
v -400 0 0
v -416 -16 0
v -432 -16 0
v -432 0 0
v -416 0 0
v -432 -16 0
v -448 -16 0
v -448 0 0
v -432 0 0
v -448 -16 0
v -464 -16 0
v -464 0 0
v -448 0 0
v -464 -16 0
v -480 -16 0
v -480 0 0
v -464 0 0
v -480 -16 0
v -496 -16 0
v -496 0 0
v -480 0 0
v -496 -16 0
v -512 -16 0
v -512 0 0
v -496 0 0

# Texture cooridinates (Count = 4)
vt 1 1
vt 0 1
vt 0 0
vt 1 0

# Normal
vn 0 0 -1

# Mesh description
g Stage1_mesh_0004

# Faces
f 1/1/1 2/2/1 3/3/1 4/4/1
f 5/4/1 6/1/1 7/2/1 8/3/1
f 9/4/1 10/1/1 11/2/1 12/3/1
f 13/4/1 14/1/1 15/2/1 16/3/1
f 17/4/1 18/1/1 19/2/1 20/3/1
f 21/4/1 22/1/1 23/2/1 24/3/1
f 25/4/1 26/1/1 27/2/1 28/3/1
f 29/4/1 30/1/1 31/2/1 32/3/1
f 33/4/1 34/1/1 35/2/1 36/3/1
f 37/4/1 38/1/1 39/2/1 40/3/1
f 41/4/1 42/1/1 43/2/1 44/3/1
f 45/4/1 46/1/1 47/2/1 48/3/1
f 49/4/1 50/1/1 51/2/1 52/3/1
f 53/4/1 54/1/1 55/2/1 56/3/1
f 57/4/1 58/1/1 59/2/1 60/3/1
f 61/4/1 62/1/1 63/2/1 64/3/1
f 65/4/1 66/1/1 67/2/1 68/3/1
f 69/4/1 70/1/1 71/2/1 72/3/1
f 73/4/1 74/1/1 75/2/1 76/3/1
f 77/4/1 78/1/1 79/2/1 80/3/1
f 81/4/1 82/1/1 83/2/1 84/3/1
f 85/4/1 86/1/1 87/2/1 88/3/1
f 89/4/1 90/1/1 91/2/1 92/3/1
f 93/4/1 94/1/1 95/2/1 96/3/1
f 97/4/1 98/1/1 99/2/1 100/3/1
f 101/4/1 102/1/1 103/2/1 104/3/1
f 105/4/1 106/1/1 107/2/1 108/3/1
f 109/4/1 110/1/1 111/2/1 112/3/1
f 113/4/1 114/1/1 115/2/1 116/3/1
f 117/4/1 118/1/1 119/2/1 120/3/1
f 121/4/1 122/1/1 123/2/1 124/3/1
f 125/1/1 126/2/1 127/3/1 128/4/1
f 129/1/1 130/2/1 131/3/1 132/4/1
f 133/3/1 134/4/1 135/1/1 136/2/1
f 137/1/1 138/2/1 139/3/1 140/4/1
f 141/1/1 142/2/1 143/3/1 144/4/1
f 145/3/1 146/4/1 147/1/1 148/2/1
f 149/1/1 150/2/1 151/3/1 152/4/1
f 153/1/1 154/2/1 155/3/1 156/4/1
f 157/3/1 158/4/1 159/1/1 160/2/1
f 161/1/1 162/2/1 163/3/1 164/4/1
f 165/1/1 166/2/1 167/3/1 168/4/1
f 169/3/1 170/4/1 171/1/1 172/2/1
f 173/1/1 174/2/1 175/3/1 176/4/1
f 177/1/1 178/2/1 179/3/1 180/4/1
f 181/3/1 182/4/1 183/1/1 184/2/1
f 185/1/1 186/2/1 187/3/1 188/4/1
f 189/1/1 190/2/1 191/3/1 192/4/1
f 193/3/1 194/4/1 195/1/1 196/2/1
f 197/1/1 198/2/1 199/3/1 200/4/1
f 201/1/1 202/2/1 203/3/1 204/4/1
f 205/3/1 206/4/1 207/1/1 208/2/1
f 209/1/1 210/2/1 211/3/1 212/4/1
f 213/1/1 214/2/1 215/3/1 216/4/1
f 217/3/1 218/4/1 219/1/1 220/2/1
f 221/1/1 222/2/1 223/3/1 224/4/1
f 225/1/1 226/2/1 227/3/1 228/4/1
f 229/2/1 230/3/1 231/4/1 232/1/1
f 233/2/1 234/3/1 235/4/1 236/1/1
f 237/2/1 238/3/1 239/4/1 240/1/1
f 241/2/1 242/3/1 243/4/1 244/1/1
f 245/2/1 246/3/1 247/4/1 248/1/1
f 249/2/1 250/3/1 251/4/1 252/1/1
f 253/2/1 254/3/1 255/4/1 256/1/1
f 257/2/1 258/3/1 259/4/1 260/1/1
f 261/2/1 262/3/1 263/4/1 264/1/1
f 265/2/1 266/3/1 267/4/1 268/1/1
f 269/2/1 270/3/1 271/4/1 272/1/1
f 273/2/1 274/3/1 275/4/1 276/1/1
f 277/2/1 278/3/1 279/4/1 280/1/1
f 281/2/1 282/3/1 283/4/1 284/1/1
f 285/2/1 286/3/1 287/4/1 288/1/1
f 289/2/1 290/3/1 291/4/1 292/1/1
f 293/2/1 294/3/1 295/4/1 296/1/1
f 297/3/1 298/4/1 299/1/1 300/2/1
f 301/1/1 302/2/1 303/3/1 304/4/1
f 305/1/1 306/2/1 307/3/1 308/4/1
f 309/3/1 310/4/1 311/1/1 312/2/1
f 313/1/1 314/2/1 315/3/1 316/4/1
f 317/1/1 318/2/1 319/3/1 320/4/1
f 321/3/1 322/4/1 323/1/1 324/2/1
f 325/1/1 326/2/1 327/3/1 328/4/1
f 329/1/1 330/2/1 331/3/1 332/4/1
f 333/3/1 334/4/1 335/1/1 336/2/1
f 337/1/1 338/2/1 339/3/1 340/4/1
f 341/1/1 342/2/1 343/3/1 344/4/1
f 345/3/1 346/4/1 347/1/1 348/2/1
f 349/1/1 350/2/1 351/3/1 352/4/1
f 353/1/1 354/2/1 355/3/1 356/4/1
f 357/2/1 358/3/1 359/4/1 360/1/1
f 361/2/1 362/3/1 363/4/1 364/1/1
f 365/3/1 366/4/1 367/1/1 368/2/1
f 369/1/1 370/2/1 371/3/1 372/4/1
f 373/2/1 374/3/1 375/4/1 376/1/1
f 377/2/1 378/3/1 379/4/1 380/1/1
f 381/2/1 382/3/1 383/4/1 384/1/1
f 385/2/1 386/3/1 387/4/1 388/1/1
f 389/2/1 390/3/1 391/4/1 392/1/1
f 393/2/1 394/3/1 395/4/1 396/1/1
f 397/2/1 398/3/1 399/4/1 400/1/1
f 401/2/1 402/3/1 403/4/1 404/1/1
f 405/2/1 406/3/1 407/4/1 408/1/1
f 409/2/1 410/3/1 411/4/1 412/1/1
f 413/2/1 414/3/1 415/4/1 416/1/1
f 417/2/1 418/3/1 419/4/1 420/1/1
f 421/2/1 422/3/1 423/4/1 424/1/1
f 425/2/1 426/3/1 427/4/1 428/1/1
f 429/2/1 430/3/1 431/4/1 432/1/1
f 433/2/1 434/3/1 435/4/1 436/1/1
f 437/2/1 438/3/1 439/4/1 440/1/1
f 441/3/1 442/4/1 443/1/1 444/2/1
f 445/1/1 446/2/1 447/3/1 448/4/1
f 449/1/1 450/2/1 451/3/1 452/4/1
f 453/3/1 454/4/1 455/1/1 456/2/1
f 457/1/1 458/2/1 459/3/1 460/4/1
f 461/1/1 462/2/1 463/3/1 464/4/1
f 465/1/1 466/2/1 467/3/1 468/4/1
f 469/1/1 470/2/1 471/3/1 472/4/1
f 473/1/1 474/2/1 475/3/1 476/4/1
f 477/1/1 478/2/1 479/3/1 480/4/1
f 481/1/1 482/2/1 483/3/1 484/4/1
f 485/1/1 486/2/1 487/3/1 488/4/1
f 489/3/1 490/4/1 491/1/1 492/2/1
f 493/1/1 494/2/1 495/3/1 496/4/1
f 497/1/1 498/2/1 499/3/1 500/4/1
f 501/2/1 502/3/1 503/4/1 504/1/1
f 505/2/1 506/3/1 507/4/1 508/1/1
f 509/2/1 510/3/1 511/4/1 512/1/1
f 513/2/1 514/3/1 515/4/1 516/1/1
f 517/2/1 518/3/1 519/4/1 520/1/1
f 521/2/1 522/3/1 523/4/1 524/1/1
f 525/2/1 526/3/1 527/4/1 528/1/1
f 529/2/1 530/3/1 531/4/1 532/1/1
f 533/2/1 534/3/1 535/4/1 536/1/1
f 537/2/1 538/3/1 539/4/1 540/1/1
f 541/2/1 542/3/1 543/4/1 544/1/1
f 545/2/1 546/3/1 547/4/1 548/1/1
f 549/2/1 550/3/1 551/4/1 552/1/1
f 553/2/1 554/3/1 555/4/1 556/1/1
f 557/2/1 558/3/1 559/4/1 560/1/1
f 561/2/1 562/3/1 563/4/1 564/1/1
f 565/2/1 566/3/1 567/4/1 568/1/1
f 569/2/1 570/3/1 571/4/1 572/1/1
f 573/2/1 574/3/1 575/4/1 576/1/1
f 577/2/1 578/3/1 579/4/1 580/1/1
f 581/2/1 582/3/1 583/4/1 584/1/1
f 585/2/1 586/3/1 587/4/1 588/1/1
f 589/2/1 590/3/1 591/4/1 592/1/1
f 593/3/1 594/4/1 595/1/1 596/2/1
f 597/1/1 598/2/1 599/3/1 600/4/1
f 601/1/1 602/2/1 603/3/1 604/4/1
f 605/2/1 606/3/1 607/4/1 608/1/1
f 609/2/1 610/3/1 611/4/1 612/1/1
f 613/2/1 614/3/1 615/4/1 616/1/1
f 617/2/1 618/3/1 619/4/1 620/1/1
f 621/2/1 622/3/1 623/4/1 624/1/1
f 625/2/1 626/3/1 627/4/1 628/1/1
f 629/2/1 630/3/1 631/4/1 632/1/1
f 633/2/1 634/3/1 635/4/1 636/1/1
f 637/2/1 638/3/1 639/4/1 640/1/1
f 641/2/1 642/3/1 643/4/1 644/1/1
f 645/2/1 646/3/1 647/4/1 648/1/1
f 649/2/1 650/3/1 651/4/1 652/1/1
f 653/2/1 654/3/1 655/4/1 656/1/1
f 657/2/1 658/3/1 659/4/1 660/1/1
f 661/2/1 662/3/1 663/4/1 664/1/1
f 665/2/1 666/3/1 667/4/1 668/1/1
f 669/2/1 670/3/1 671/4/1 672/1/1
f 673/2/1 674/3/1 675/4/1 676/1/1
f 677/2/1 678/3/1 679/4/1 680/1/1
f 681/2/1 682/3/1 683/4/1 684/1/1
f 685/2/1 686/3/1 687/4/1 688/1/1
f 689/2/1 690/3/1 691/4/1 692/1/1
f 693/2/1 694/3/1 695/4/1 696/1/1
f 697/3/1 698/4/1 699/1/1 700/2/1
f 701/1/1 702/2/1 703/3/1 704/4/1
f 705/3/1 706/4/1 707/1/1 708/2/1
f 709/1/1 710/2/1 711/3/1 712/4/1
f 713/3/1 714/4/1 715/1/1 716/2/1
f 717/1/1 718/2/1 719/3/1 720/4/1
f 721/3/1 722/4/1 723/1/1 724/2/1
f 725/1/1 726/2/1 727/3/1 728/4/1
f 729/3/1 730/4/1 731/1/1 732/2/1
f 733/1/1 734/2/1 735/3/1 736/4/1
f 737/3/1 738/4/1 739/1/1 740/2/1
f 741/1/1 742/2/1 743/3/1 744/4/1
f 745/3/1 746/4/1 747/1/1 748/2/1
f 749/1/1 750/2/1 751/3/1 752/4/1
f 753/3/1 754/4/1 755/1/1 756/2/1
f 757/1/1 758/2/1 759/3/1 760/4/1
f 761/4/1 762/1/1 763/2/1 764/3/1
f 765/4/1 766/1/1 767/2/1 768/3/1
f 769/4/1 770/1/1 771/2/1 772/3/1
f 773/4/1 774/1/1 775/2/1 776/3/1
f 777/4/1 778/1/1 779/2/1 780/3/1
f 781/4/1 782/1/1 783/2/1 784/3/1
f 785/4/1 786/1/1 787/2/1 788/3/1
f 789/1/1 790/2/1 791/3/1 792/4/1
f 793/4/1 794/1/1 795/2/1 796/3/1
f 797/4/1 798/1/1 799/2/1 800/3/1
f 801/4/1 802/1/1 803/2/1 804/3/1
f 805/4/1 806/1/1 807/2/1 808/3/1
f 809/4/1 810/1/1 811/2/1 812/3/1
f 813/4/1 814/1/1 815/2/1 816/3/1
f 817/4/1 818/1/1 819/2/1 820/3/1
f 821/1/1 822/2/1 823/3/1 824/4/1

