%YAML 1.1
%TAG !u! tag:unity3d.com,2011:
--- !u!1001 &100100000
Prefab:
  m_ObjectHideFlags: 1
  serializedVersion: 2
  m_Modification:
    m_TransformParent: {fileID: 0}
    m_Modifications: []
    m_RemovedComponents: []
  m_ParentPrefab: {fileID: 0}
  m_RootGameObject: {fileID: 1033052514890410}
  m_IsPrefabParent: 1
--- !u!1 &1033052514890410
GameObject:
  m_ObjectHideFlags: 0
  m_PrefabParentObject: {fileID: 0}
  m_PrefabInternal: {fileID: 100100000}
  serializedVersion: 5
  m_Component:
  - component: {fileID: 4726913935453612}
  - component: {fileID: 114886882374704584}
  m_Layer: 0
  m_Name: SaveManager
  m_TagString: Untagged
  m_Icon: {fileID: 0}
  m_NavMeshLayer: 0
  m_StaticEditorFlags: 0
  m_IsActive: 1
--- !u!4 &4726913935453612
Transform:
  m_ObjectHideFlags: 1
  m_PrefabParentObject: {fileID: 0}
  m_PrefabInternal: {fileID: 100100000}
  m_GameObject: {fileID: 1033052514890410}
  m_LocalRotation: {x: 0, y: 0, z: 0, w: 1}
  m_LocalPosition: {x: -13.489794, y: -12.391678, z: 0}
  m_LocalScale: {x: 1, y: 1, z: 1}
  m_Children: []
  m_Father: {fileID: 0}
  m_RootOrder: 0
  m_LocalEulerAnglesHint: {x: 0, y: 0, z: 0}
--- !u!114 &114886882374704584
MonoBehaviour:
  m_ObjectHideFlags: 1
  m_PrefabParentObject: {fileID: 0}
  m_PrefabInternal: {fileID: 100100000}
  m_GameObject: {fileID: 1033052514890410}
  m_Enabled: 1
  m_EditorHideFlags: 0
  m_Script: {fileID: 11500000, guid: 9cde03efbbc2b9945a8432853a9b64eb, type: 3}
  m_Name: 
  m_EditorClassIdentifier: 
  saveButton: {fileID: 0}
  backButton: {fileID: 0}
  Player: {fileID: 1789172700765434, guid: cc583d0688a416944a53ab9ac352b5e0, type: 2}
  Camera: {fileID: 1297125955347834, guid: d6ca6d8c73928a24f96261d6ddddf5b2, type: 2}
  Canvas: {fileID: 1040104674385618, guid: a8cf3ca2540aeae4c80ba8665c5b2367, type: 2}
  SpawnPoint: {fileID: 0}
